%YAML 1.1
%TAG !u! tag:unity3d.com,2011:
--- !u!114 &11400000
MonoBehaviour:
  m_ObjectHideFlags: 0
  m_CorrespondingSourceObject: {fileID: 0}
  m_PrefabInstance: {fileID: 0}
  m_PrefabAsset: {fileID: 0}
  m_GameObject: {fileID: 0}
  m_Enabled: 1
  m_EditorHideFlags: 0
  m_Script: {fileID: 11500000, guid: fa99e879ae843d14889e67e2ec8b1ae2, type: 3}
  m_Name: Grass
  m_EditorClassIdentifier: 
  sprite: {fileID: 21300000, guid: 5730cda6685e57845ae807d3a19f8386, type: 3}
  passable: 1
  movementCost: 1
