%YAML 1.1
%TAG !u! tag:unity3d.com,2011:
--- !u!1001 &6976448095107751374
PrefabInstance:
  m_ObjectHideFlags: 0
  serializedVersion: 2
  m_Modification:
    m_TransformParent: {fileID: 0}
    m_Modifications:
    - target: {fileID: 311388630325460725, guid: 4884605d609756949a2422e36a351502,
        type: 3}
      propertyPath: m_Name
      value: Enemy Variant
      objectReference: {fileID: 0}
    - target: {fileID: 4174267972829024053, guid: 4884605d609756949a2422e36a351502,
        type: 3}
      propertyPath: m_Controller
      value: 
      objectReference: {fileID: 9100000, guid: dccd7810b3663a44ea1e9478c8ec5e17, type: 2}
    - target: {fileID: 4674107333400764039, guid: 4884605d609756949a2422e36a351502,
        type: 3}
      propertyPath: m_Sprite
      value: 
      objectReference: {fileID: -2664044222200931426, guid: ff47679d5800baa478a6d2454e62e602,
        type: 3}
    - target: {fileID: 4674107333400764039, guid: 4884605d609756949a2422e36a351502,
        type: 3}
      propertyPath: m_Size.x
      value: 0.25
      objectReference: {fileID: 0}
    - target: {fileID: 4674107333400764039, guid: 4884605d609756949a2422e36a351502,
        type: 3}
      propertyPath: m_Size.y
      value: 0.25
      objectReference: {fileID: 0}
    - target: {fileID: 4674107333400764039, guid: 4884605d609756949a2422e36a351502,
        type: 3}
      propertyPath: m_WasSpriteAssigned
      value: 1
      objectReference: {fileID: 0}
    - target: {fileID: 4674107333400764039, guid: 4884605d609756949a2422e36a351502,
        type: 3}
      propertyPath: m_Color.r
      value: 0.9622642
      objectReference: {fileID: 0}
    - target: {fileID: 4674107333400764039, guid: 4884605d609756949a2422e36a351502,
        type: 3}
      propertyPath: m_Color.g
      value: 0.06808472
      objectReference: {fileID: 0}
    - target: {fileID: 4674107333400764039, guid: 4884605d609756949a2422e36a351502,
        type: 3}
      propertyPath: m_Color.b
      value: 0.06808472
      objectReference: {fileID: 0}
    - target: {fileID: 4674107333400764039, guid: 4884605d609756949a2422e36a351502,
        type: 3}
      propertyPath: m_SortingOrder
      value: 5
      objectReference: {fileID: 0}
    - target: {fileID: 4783566032724799001, guid: 4884605d609756949a2422e36a351502,
        type: 3}
      propertyPath: unitName
      value: Vergil
      objectReference: {fileID: 0}
    - target: {fileID: 4783566032724799001, guid: 4884605d609756949a2422e36a351502,
        type: 3}
      propertyPath: moveRange
      value: 3
      objectReference: {fileID: 0}
    - target: {fileID: 4783566032724799001, guid: 4884605d609756949a2422e36a351502,
        type: 3}
      propertyPath: team
      value: 1
      objectReference: {fileID: 0}
    - target: {fileID: 6977505481381443333, guid: 4884605d609756949a2422e36a351502,
        type: 3}
      propertyPath: m_LocalPosition.x
      value: 2.5
      objectReference: {fileID: 0}
    - target: {fileID: 6977505481381443333, guid: 4884605d609756949a2422e36a351502,
        type: 3}
      propertyPath: m_LocalPosition.y
      value: 0.25
      objectReference: {fileID: 0}
    - target: {fileID: 6977505481381443333, guid: 4884605d609756949a2422e36a351502,
        type: 3}
      propertyPath: m_LocalPosition.z
      value: 0
      objectReference: {fileID: 0}
    - target: {fileID: 6977505481381443333, guid: 4884605d609756949a2422e36a351502,
        type: 3}
      propertyPath: m_LocalRotation.x
      value: 0
      objectReference: {fileID: 0}
    - target: {fileID: 6977505481381443333, guid: 4884605d609756949a2422e36a351502,
        type: 3}
      propertyPath: m_LocalRotation.y
      value: 0
      objectReference: {fileID: 0}
    - target: {fileID: 6977505481381443333, guid: 4884605d609756949a2422e36a351502,
        type: 3}
      propertyPath: m_LocalRotation.z
      value: 0
      objectReference: {fileID: 0}
    - target: {fileID: 6977505481381443333, guid: 4884605d609756949a2422e36a351502,
        type: 3}
      propertyPath: m_LocalRotation.w
      value: 1
      objectReference: {fileID: 0}
    - target: {fileID: 6977505481381443333, guid: 4884605d609756949a2422e36a351502,
        type: 3}
      propertyPath: m_RootOrder
      value: 0
      objectReference: {fileID: 0}
    - target: {fileID: 6977505481381443333, guid: 4884605d609756949a2422e36a351502,
        type: 3}
      propertyPath: m_LocalEulerAnglesHint.x
      value: 0
      objectReference: {fileID: 0}
    - target: {fileID: 6977505481381443333, guid: 4884605d609756949a2422e36a351502,
        type: 3}
      propertyPath: m_LocalEulerAnglesHint.y
      value: 0
      objectReference: {fileID: 0}
    - target: {fileID: 6977505481381443333, guid: 4884605d609756949a2422e36a351502,
        type: 3}
      propertyPath: m_LocalEulerAnglesHint.z
      value: 0
      objectReference: {fileID: 0}
    - target: {fileID: 9111473284801589540, guid: 4884605d609756949a2422e36a351502,
        type: 3}
      propertyPath: m_LocalScale.x
      value: 2
      objectReference: {fileID: 0}
    - target: {fileID: 9111473284801589540, guid: 4884605d609756949a2422e36a351502,
        type: 3}
      propertyPath: m_LocalScale.y
      value: 2
      objectReference: {fileID: 0}
    - target: {fileID: 9111473284801589540, guid: 4884605d609756949a2422e36a351502,
        type: 3}
      propertyPath: m_LocalPosition.y
      value: 0.135
      objectReference: {fileID: 0}
    m_RemovedComponents: []
  m_SourcePrefab: {fileID: 100100000, guid: 4884605d609756949a2422e36a351502, type: 3}
